ply
format ascii 1.0
comment Created by Blender 2.79 (sub 0) - www.blender.org, source file: ''
element vertex 28
property float x
property float y
property float z
property float nx
property float ny
property float nz
property uchar red
property uchar green
property uchar blue
element face 12
property list uchar uint vertex_indices
end_header
-0.009564 0.010145 0.018750 -1.000000 0.000000 0.000000 255 36 36
-0.009564 0.010145 0.000000 -1.000000 0.000000 0.000000 255 67 67
-0.009564 -0.008606 0.018750 -1.000000 0.000000 0.000000 255 31 31
-0.009564 -0.008606 0.000000 -1.000000 0.000000 0.000000 255 38 38
0.009186 0.010145 0.018750 0.000000 -0.000000 1.000000 255 34 34
-0.009564 0.010145 0.018750 0.000000 -0.000000 1.000000 255 120 120
0.009186 -0.008606 0.018750 0.000000 -0.000000 1.000000 255 30 30
-0.009564 0.010145 0.018750 -0.000000 0.000000 1.000000 255 45 45
-0.009564 -0.008606 0.018750 -0.000000 0.000000 1.000000 255 30 30
0.009186 0.010145 0.000000 1.000000 -0.000000 0.000000 255 54 54
0.009186 0.010145 0.018750 1.000000 -0.000000 0.000000 255 34 34
0.009186 -0.008606 0.000000 1.000000 -0.000000 0.000000 255 35 35
0.009186 -0.008606 0.000000 1.000000 -0.000000 0.000000 255 31 31
0.009186 0.010145 0.018750 1.000000 -0.000000 0.000000 255 31 31
0.009186 -0.008606 0.018750 1.000000 -0.000000 0.000000 255 30 30
-0.009564 0.010145 0.000000 0.000000 0.000000 -1.000000 255 41 41
0.009186 0.010145 0.000000 0.000000 0.000000 -1.000000 255 34 34
-0.009564 -0.008606 0.000000 0.000000 0.000000 -1.000000 255 31 31
0.009186 -0.008606 0.000000 -0.000000 0.000000 -1.000000 255 46 46
0.009186 0.010145 0.018750 -0.000000 1.000000 0.000000 255 56 56
0.009186 0.010145 0.000000 -0.000000 1.000000 0.000000 255 40 40
-0.009564 0.010145 0.018750 -0.000000 1.000000 0.000000 255 95 95
-0.009564 0.010145 0.000000 0.000000 1.000000 -0.000000 255 75 75
0.009186 -0.008606 0.000000 0.000000 -1.000000 0.000000 255 31 31
0.009186 -0.008606 0.018750 0.000000 -1.000000 0.000000 255 30 30
-0.009564 -0.008606 0.000000 0.000000 -1.000000 0.000000 255 38 38
-0.009564 -0.008606 0.000000 0.000000 -1.000000 -0.000000 255 74 74
-0.009564 -0.008606 0.018750 0.000000 -1.000000 -0.000000 255 31 31
3 0 1 2
3 2 1 3
3 4 5 6
3 6 7 8
3 9 10 11
3 12 13 14
3 15 16 17
3 17 16 18
3 19 20 21
3 21 20 22
3 23 24 25
3 26 24 27
